{
    "name": "root",
    "gauges": {
        "tRacerAI3.Policy.Entropy.mean": {
            "value": 1.4761550426483154,
            "min": 1.4191570281982422,
            "max": 1.497738242149353,
            "count": 80
        },
        "tRacerAI3.Policy.ExtrinsicValueEstimate.mean": {
            "value": -761.399169921875,
            "min": -896.70849609375,
            "max": -66.54302978515625,
            "count": 80
        },
        "tRacerAI3.Environment.EpisodeLength.mean": {
            "value": 194.54263565891472,
            "min": 149.2,
            "max": 267.54347826086956,
            "count": 80
        },
        "tRacerAI3.Self-play.ELO.mean": {
            "value": 1665.6741559886184,
            "min": 995.7512238098495,
            "max": 1665.6741559886184,
            "count": 80
        },
        "tRacerAI3.Environment.CumulativeReward.mean": {
            "value": -23934.361299899196,
            "min": -25275.90918280332,
            "max": 9907.072789582338,
            "count": 80
        },
        "tRacerAI3.Policy.ExtrinsicReward.mean": {
            "value": -23934.361299899196,
            "min": -25275.90918280332,
            "max": 9907.072789582338,
            "count": 80
        },
        "tRacerAI3.Losses.ValueLoss.mean": {
            "value": 13221817.0,
            "min": 1166069.5,
            "max": 15336336.0,
            "count": 80
        },
        "tRacerAI3.Losses.PolicyLoss.mean": {
            "value": 0.015533345751464367,
            "min": 0.013314101845026016,
            "max": 0.2836786210536957,
            "count": 80
        },
        "tRacerAI3.Policy.LearningRate.mean": {
            "value": 1.5020475530036492e-06,
            "min": 1.5020475530036492e-06,
            "max": 0.00029691922827623785,
            "count": 80
        },
        "tRacerAI3.Policy.Epsilon.mean": {
            "value": 0.10050063580274582,
            "min": 0.10050063580274582,
            "max": 0.19897308945655823,
            "count": 80
        },
        "tRacerAI3.Policy.Beta.mean": {
            "value": 1.2453180715965573e-05,
            "min": 1.2453180715965573e-05,
            "max": 0.0004949680296704173,
            "count": 80
        },
        "tRacerAI3.IsTraining.mean": {
            "value": 1.0,
            "min": 1.0,
            "max": 1.0,
            "count": 80
        }
    },
    "metadata": {
        "timer_format_version": "0.1.0",
        "start_time_seconds": "1599485496",
        "python_version": "3.7.7 (default, May  6 2020, 11:45:54) [MSC v.1916 64 bit (AMD64)]",
        "command_line_arguments": "C:\\Users\\Andruplay\\anaconda3\\envs\\ml-agents\\Scripts\\mlagents-learn car_config.yaml --run-id=tRacerAI3 --force",
        "mlagents_version": "0.19.0",
        "mlagents_envs_version": "0.19.0",
        "communication_protocol_version": "1.0.0",
        "tensorflow_version": "2.3.0",
        "numpy_version": "1.19.1",
        "end_time_seconds": "1599509372"
    },
    "total": 23875.9608476,
    "count": 1,
    "self": 1.7100293000003148,
    "children": {
        "run_training.setup": {
            "total": 0.03544099999999961,
            "count": 1,
            "self": 0.03544099999999961
        },
        "TrainerController.start_learning": {
            "total": 23874.2153773,
            "count": 1,
            "self": 18.267560599368153,
            "children": {
                "TrainerController._reset_env": {
                    "total": 15.530497699998865,
                    "count": 10,
                    "self": 15.530497699998865
                },
                "TrainerController.advance": {
                    "total": 23839.958913500635,
                    "count": 508692,
                    "self": 8.955332700403233,
                    "children": {
                        "env_step": {
                            "total": 23831.003580800232,
                            "count": 508692,
                            "self": 20839.563751899175,
                            "children": {
                                "SubprocessEnvManager._take_step": {
                                    "total": 2982.5920717008107,
                                    "count": 508692,
                                    "self": 98.54156650007326,
                                    "children": {
                                        "TFPolicy.evaluate": {
                                            "total": 2884.0505052007375,
                                            "count": 2000784,
                                            "self": 2884.0505052007375
                                        }
                                    }
                                },
                                "workers": {
                                    "total": 8.847757200246544,
                                    "count": 508692,
                                    "self": 0.0,
                                    "children": {
                                        "worker_root": {
                                            "total": 23836.0197610007,
                                            "count": 508692,
                                            "is_parallel": true,
                                            "self": 4474.325800100927,
                                            "children": {
                                                "steps_from_proto": {
                                                    "total": 0.022663600006961104,
                                                    "count": 40,
                                                    "is_parallel": true,
                                                    "self": 0.005284300026064059,
                                                    "children": {
                                                        "_process_vector_observation": {
                                                            "total": 0.017379299980897045,
                                                            "count": 80,
                                                            "is_parallel": true,
                                                            "self": 0.017379299980897045
                                                        }
                                                    }
                                                },
                                                "UnityEnvironment.step": {
                                                    "total": 19361.671297299767,
                                                    "count": 508692,
                                                    "is_parallel": true,
                                                    "self": 159.611966297889,
                                                    "children": {
                                                        "UnityEnvironment._generate_step_input": {
                                                            "total": 151.12191990052872,
                                                            "count": 508692,
                                                            "is_parallel": true,
                                                            "self": 151.12191990052872
                                                        },
                                                        "communicator.exchange": {
                                                            "total": 18473.064313900613,
                                                            "count": 508692,
                                                            "is_parallel": true,
                                                            "self": 18473.064313900613
                                                        },
                                                        "steps_from_proto": {
                                                            "total": 577.873097200735,
                                                            "count": 2034768,
                                                            "is_parallel": true,
                                                            "self": 227.42590430103832,
                                                            "children": {
                                                                "_process_vector_observation": {
                                                                    "total": 350.44719289969663,
                                                                    "count": 4069536,
                                                                    "is_parallel": true,
                                                                    "self": 350.44719289969663
                                                                }
                                                            }
                                                        }
                                                    }
                                                }
                                            }
                                        }
                                    }
                                }
                            }
                        }
                    }
                },
                "trainer_threads": {
                    "total": 2.9499999072868377e-05,
                    "count": 1,
                    "self": 2.9499999072868377e-05,
                    "children": {
                        "thread_root": {
                            "total": 0.0,
                            "count": 0,
                            "is_parallel": true,
                            "self": 0.0,
                            "children": {
                                "trainer_advance": {
                                    "total": 23734.55952749719,
                                    "count": 4767619,
                                    "is_parallel": true,
                                    "self": 15145.46170219928,
                                    "children": {
                                        "process_trajectory": {
                                            "total": 7944.2353635979025,
                                            "count": 4767619,
                                            "is_parallel": true,
                                            "self": 7941.998448597903,
                                            "children": {
                                                "RLTrainer._checkpoint": {
                                                    "total": 2.236914999999499,
                                                    "count": 4,
                                                    "is_parallel": true,
                                                    "self": 2.236914999999499
                                                }
                                            }
                                        },
                                        "_update_policy": {
                                            "total": 644.8624617000064,
                                            "count": 97,
                                            "is_parallel": true,
                                            "self": 229.26129970005354,
                                            "children": {
                                                "PPOOptimizer.update": {
                                                    "total": 415.60116199995286,
                                                    "count": 2910,
                                                    "is_parallel": true,
                                                    "self": 415.60116199995286
                                                }
                                            }
                                        }
                                    }
                                }
                            }
                        }
                    }
                },
                "TrainerController._save_models": {
                    "total": 0.4583759999986796,
                    "count": 1,
                    "self": 0.008386199999222299,
                    "children": {
                        "RLTrainer._checkpoint": {
                            "total": 0.4499897999994573,
                            "count": 1,
                            "self": 0.4499897999994573
                        }
                    }
                }
            }
        }
    }
}